…
```r
flights %>% 
  filter(arr_delay >= 120)
```

```
## # A tibble: 10,200 × 19
##     year month   day dep_time sched_dep_time dep_delay arr_time sched_arr_time
##    <int> <int> <int>    <int>          <int>     <dbl>    <int>          <int>
##  1  2013     1     1      811            630       101     1047            830
##  2  2013     1     1      848           1835       853     1001           1950
##  3  2013     1     1      957            733       144     1056            853
##  4  2013     1     1     1114            900       134     1447           1222
##  5  2013     1     1     1505           1310       115     1638           1431
##  6  2013     1     1     1525           1340       105     1831           1626
##  7  2013     1     1     1549           1445        64     1912           1656
##  8  2013     1     1     1558           1359       119     1718           1515
##  9  2013     1     1     1732           1630        62     2028           1825
## 10  2013     1     1     1803           1620       103     2008           1750
## # ℹ 10,190 more rows
## # ℹ 11 more variables: arr_delay <dbl>, carrier <chr>, flight <int>,
## #   tailnum <chr>, origin <chr>, dest <chr>, air_time <dbl>, distance <dbl>,
## #   hour <dbl>, minute <dbl>, time_hour <dttm>
```

```r
# Flew to Houston (IAH or HOU)

flights %>% 
  filter(dest == "TAH" | dest == "HOU")
```

```
## # A tibble: 2,115 × 19
##     year month   day dep_time sched_dep_time dep_delay arr_time sched_arr_time
##    <int> <int> <int>    <int>          <int>     <dbl>    <int>          <int>
##  1  2013     1     1     1208           1158        10     1540           1502
##  2  2013     1     1     1306           1300         6     1622           1610
##  3  2013     1     1     1708           1700         8     2037           2005
##  4  2013     1     1     2030           2035        -5     2354           2342
##  5  2013     1     2      734            700        34     1045           1025
##  6  2013     1     2     1156           1158        -2     1517           1502
##  7  2013     1     2     1319           1305        14     1633           1615
##  8  2013     1     2     1810           1655        75     2146           2000
##  9  2013     1     2     2031           2035        -4     2353           2342
## 10  2013     1     3      704            700         4     1036           1025
## # ℹ 2,105 more rows
## # ℹ 11 more variables: arr_delay <dbl>, carrier <chr>, flight <int>,
## #   tailnum <chr>, origin <chr>, dest <chr>, air_time <dbl>, distance <dbl>,
## #   hour <dbl>, minute <dbl>, time_hour <dttm>
```

```r
# Were operated by United (`UA`), American (`AA`), or Delta (`DL`)

flights %>% 
  filter(carrier == "UA" | carrier == "AA" | carrier == "DL")
```

```
## # A tibble: 139,504 × 19
##     year month   day dep_time sched_dep_time dep_delay arr_time sched_arr_time
##    <int> <int> <int>    <int>          <int>     <dbl>    <int>          <int>
##  1  2013     1     1      517            515         2      830            819
##  2  2013     1     1      533            529         4      850            830
##  3  2013     1     1      542            540         2      923            850
##  4  2013     1     1      554            600        -6      812            837
##  5  2013     1     1      554            558        -4      740            728
##  6  2013     1     1      558            600        -2      753            745
##  7  2013     1     1      558            600        -2      924            917
##  8  2013     1     1      558            600        -2      923            937
##  9  2013     1     1      559            600        -1      941            910
## 10  2013     1     1      559            600        -1      854            902
## # ℹ 139,494 more rows
## # ℹ 11 more variables: arr_delay <dbl>, carrier <chr>, flight <int>,
## #   tailnum <chr>, origin <chr>, dest <chr>, air_time <dbl>, distance <dbl>,
## #   hour <dbl>, minute <dbl>, time_hour <dttm>
```

```r
# Departed in summer (July, August, and September)
  
flights %>% 
  filter(month == 7 | month == 8 | month == 9)
```

```
## # A tibble: 86,326 × 19
##     year month   day dep_time sched_dep_time dep_delay arr_time sched_arr_time
##    <int> <int> <int>    <int>          <int>     <dbl>    <int>          <int>
##  1  2013     7     1        1           2029       212      236           2359
##  2  2013     7     1        2           2359         3      344            344
##  3  2013     7     1       29           2245       104      151              1
##  4  2013     7     1       43           2130       193      322             14
##  5  2013     7     1       44           2150       174      300            100
##  6  2013     7     1       46           2051       235      304           2358
##  7  2013     7     1       48           2001       287      308           2305
##  8  2013     7     1       58           2155       183      335             43
##  9  2013     7     1      100           2146       194      327             30
## 10  2013     7     1      100           2245       135      337            135
## # ℹ 86,316 more rows
## # ℹ 11 more variables: arr_delay <dbl>, carrier <chr>, flight <int>,
## #   tailnum <chr>, origin <chr>, dest <chr>, air_time <dbl>, distance <dbl>,
## #   hour <dbl>, minute <dbl>, time_hour <dttm>
```

```r
# Arrived more than two hours late, but didn't leave late

flights %>% 
  filter(arr_delay >= 120 & dep_delay <= 0)
```

```
## # A tibble: 29 × 19
##     year month   day dep_time sched_dep_time dep_delay arr_time sched_arr_time
##    <int> <int> <int>    <int>          <int>     <dbl>    <int>          <int>
##  1  2013     1    27     1419           1420        -1     1754           1550
##  2  2013    10     7     1350           1350         0     1736           1526
##  3  2013    10     7     1357           1359        -2     1858           1654
##  4  2013    10    16      657            700        -3     1258           1056
##  5  2013    11     1      658            700        -2     1329           1015
##  6  2013     3    18     1844           1847        -3       39           2219
##  7  2013     4    17     1635           1640        -5     2049           1845
##  8  2013     4    18      558            600        -2     1149            850
##  9  2013     4    18      655            700        -5     1213            950
## 10  2013     5    22     1827           1830        -3     2217           2010
## # ℹ 19 more rows
## # ℹ 11 more variables: arr_delay <dbl>, carrier <chr>, flight <int>,
## #   tailnum <chr>, origin <chr>, dest <chr>, air_time <dbl>, distance <dbl>,
## #   hour <dbl>, minute <dbl>, time_hour <dttm>
```

```r
# Were delayed by at least an hour, but made up over 30 minutes in flight

flights %>% 
  filter(dep_delay >= 60 & dep_delay - arr_delay >=30)
```

```
## # A tibble: 2,074 × 19
##     year month   day dep_time sched_dep_time dep_delay arr_time sched_arr_time
##    <int> <int> <int>    <int>          <int>     <dbl>    <int>          <int>
##  1  2013     1     1     1716           1545        91     2140           2039
##  2  2013     1     1     2205           1720       285       46           2040
##  3  2013     1     1     2326           2130       116      131             18
##  4  2013     1     3     1503           1221       162     1803           1555
##  5  2013     1     3     1821           1530       171     2131           1910
##  6  2013     1     3     1839           1700        99     2056           1950
##  7  2013     1     3     1850           1745        65     2148           2120
##  8  2013     1     3     1923           1815        68     2036           1958
##  9  2013     1     3     1941           1759       102     2246           2139
## 10  2013     1     3     1950           1845        65     2228           2227
## # ℹ 2,064 more rows
## # ℹ 11 more variables: arr_delay <dbl>, carrier <chr>, flight <int>,
## #   tailnum <chr>, origin <chr>, dest <chr>, air_time <dbl>, distance <dbl>,
## #   hour <dbl>, minute <dbl>, time_hour <dttm>
```
…
N328AA (an American Airlines Boeing 767-223ER) is the plane with the greatest number of flights from NYC airports in 2013.

## Problem 4: The `nycflights13` package includes a table (`weather`) that describes the weather during 2013. Use that table to answer the following questions:

**What is the distribution of temperature (\`temp\`) in July 2013? Identify any important outliers in terms of the \`wind_speed\` variable.**


```r
weather
```

```
## # A tibble: 26,115 × 15
##    origin  year month   day  hour  temp  dewp humid wind_dir wind_speed
##    <chr>  <int> <int> <int> <int> <dbl> <dbl> <dbl>    <dbl>      <dbl>
##  1 EWR     2013     1     1     1  39.0  26.1  59.4      270      10.4 
##  2 EWR     2013     1     1     2  39.0  27.0  61.6      250       8.06
##  3 EWR     2013     1     1     3  39.0  28.0  64.4      240      11.5 
##  4 EWR     2013     1     1     4  39.9  28.0  62.2      250      12.7 
##  5 EWR     2013     1     1     5  39.0  28.0  64.4      260      12.7 
##  6 EWR     2013     1     1     6  37.9  28.0  67.2      240      11.5 
##  7 EWR     2013     1     1     7  39.0  28.0  64.4      240      15.0 
##  8 EWR     2013     1     1     8  39.9  28.0  62.2      250      10.4 
##  9 EWR     2013     1     1     9  39.9  28.0  62.2      260      15.0 
## 10 EWR     2013     1     1    10  41    28.0  59.6      260      13.8 
## # ℹ 26,105 more rows
## # ℹ 5 more variables: wind_gust <dbl>, precip <dbl>, pressure <dbl>,
## #   visib <dbl>, time_hour <dttm>
```
…
<img src="/blogs/homework2_web_files/figure-html/unnamed-chunk-8-1.png" width="672" />

Although it would be plausible to think that higher precipitation will lead to lower visibility, there does not seem to be a strong relationship between the two, as seen through the large variety in visibility at similar levels of precipitation.

## Problem 5: Use the `flights` and `planes` tables to answer the following questions

**- How many planes have a missing date of manufacture?**


```r
planes
```

```
## # A tibble: 3,322 × 9
##    tailnum  year type              manufacturer model engines seats speed engine
##    <chr>   <int> <chr>             <chr>        <chr>   <int> <int> <int> <chr> 
##  1 N10156   2004 Fixed wing multi… EMBRAER      EMB-…       2    55    NA Turbo…
##  2 N102UW   1998 Fixed wing multi… AIRBUS INDU… A320…       2   182    NA Turbo…
##  3 N103US   1999 Fixed wing multi… AIRBUS INDU… A320…       2   182    NA Turbo…
##  4 N104UW   1999 Fixed wing multi… AIRBUS INDU… A320…       2   182    NA Turbo…
##  5 N10575   2002 Fixed wing multi… EMBRAER      EMB-…       2    55    NA Turbo…
##  6 N105UW   1999 Fixed wing multi… AIRBUS INDU… A320…       2   182    NA Turbo…
##  7 N107US   1999 Fixed wing multi… AIRBUS INDU… A320…       2   182    NA Turbo…
##  8 N108UW   1999 Fixed wing multi… AIRBUS INDU… A320…       2   182    NA Turbo…
##  9 N109UW   1999 Fixed wing multi… AIRBUS INDU… A320…       2   182    NA Turbo…
## 10 N110UW   1999 Fixed wing multi… AIRBUS INDU… A320…       2   182    NA Turbo…
## # ℹ 3,312 more rows
```
…
```r
flights %>%
  group_by(month, origin) %>%
  summarise(median_arr_delay = median(arr_delay, na.rm = TRUE))
```

```
## `summarise()` has grouped output by 'month'. You can override using the
## `.groups` argument.
```

```
## # A tibble: 36 × 3
## # Groups:   month [12]
##    month origin median_arr_delay
##    <int> <chr>             <dbl>
##  1     1 EWR                   0
##  2     1 JFK                  -7
##  3     1 LGA                  -4
##  4     2 EWR                  -2
##  5     2 JFK                  -5
##  6     2 LGA                  -4
##  7     3 EWR                  -4
##  8     3 JFK                  -7
##  9     3 LGA                  -7
## 10     4 EWR                  -1
## # ℹ 26 more rows
```
…
